^D:\PROJECTS\VIDEOSTREAMING\VIDEOFORSLOWINTERNET\VIDEOFORSLOWINTERNET\VIDEOFORSLOWINTERNET.CPP
D:\PROJECTS\VIDEOSTREAMING\VIDEOFORSLOWINTERNET\VIDEOFORSLOWINTERNET\DEBUG\VC140.PDB
D:\PROJECTS\VIDEOSTREAMING\VIDEOFORSLOWINTERNET\VIDEOFORSLOWINTERNET\DEBUG\VIDEOFORSLOWINTERNET.OBJ
^C:\USERS\ADAMJ\APPDATA\LOCAL\TEMP\.NETFRAMEWORK,VERSION=V4.0.ASSEMBLYATTRIBUTES.CPP
D:\PROJECTS\VIDEOSTREAMING\VIDEOFORSLOWINTERNET\VIDEOFORSLOWINTERNET\DEBUG\VC140.PDB
D:\PROJECTS\VIDEOSTREAMING\VIDEOFORSLOWINTERNET\VIDEOFORSLOWINTERNET\DEBUG\.NETFRAMEWORK,VERSION=V4.0.ASSEMBLYATTRIBUTES.OBJ
D:\PROJECTS\VIDEOSTREAMING\VIDEOFORSLOWINTERNET\VIDEOFORSLOWINTERNET\DEBUG\.NETFRAMEWORK,VERSION=V4.0.ASSEMBLYATTRIBUTES.ASM
